{
	"info": {
		"_postman_id": "3cc44965-feef-4866-b8b5-dad766cb1ac2",
		"name": "ReqresExercise",
		"schema": "https://schema.getpostman.com/json/collection/v2.1.0/collection.json"
	},
	"item": [
		{
			"name": "Get requests",
			"item": [
				{
					"name": "Get Users",
					"event": [
						{
							"listen": "test",
							"script": {
								"id": "ec7502eb-a917-478a-8d74-9a9b02d0f56d",
								"exec": [
									"pm.test(\"Status code is 200\", function () {\r",
									"    pm.response.to.have.status(200);\r",
									"});\r",
									"    var jsonData = pm.response.json();\r",
									"pm.test(\"Check page number\", function () {\r",
									"    pm.expect(jsonData.page).to.eql(parseInt(pm.variables.get(\"page\")));\r",
									"});\r",
									"pm.test(\"Check the email matches the correct id\", function () {\r",
									"    pm.expect(jsonData.data[0].id).to.eql(parseInt(pm.variables.get(\"userID\")));\r",
									"    pm.expect(jsonData.data[0].email).to.eql(pm.variables.get(\"userEmail\"));\r",
									"});\r",
									"\r",
									""
								],
								"type": "text/javascript"
							}
						}
					],
					"request": {
						"method": "GET",
						"header": [],
						"url": {
							"raw": "{{baseUrl}}api/users?page={{page}}",
							"host": [
								"{{baseUrl}}api"
							],
							"path": [
								"users"
							],
							"query": [
								{
									"key": "page",
									"value": "{{page}}"
								}
							]
						}
					},
					"response": []
				},
				{
					"name": "Get Single User",
					"event": [
						{
							"listen": "test",
							"script": {
								"id": "f90c449f-475a-4a33-a73e-dc2d81179cd2",
								"exec": [
									"pm.test(\"Status code is 200\", function () {\r",
									"    pm.response.to.have.status(200);\r",
									"});\r",
									"pm.test(\"Check first and last name\", function () {\r",
									"    var jsonData = pm.response.json();\r",
									"    pm.expect(jsonData.data.first_name).to.eql(\"Michael\");\r",
									"    pm.expect(jsonData.data.last_name).to.eql(\"Lawson\");\r",
									"});"
								],
								"type": "text/javascript"
							}
						}
					],
					"protocolProfileBehavior": {
						"disableBodyPruning": true
					},
					"request": {
						"method": "GET",
						"header": [],
						"body": {
							"mode": "raw",
							"raw": "",
							"options": {
								"raw": {
									"language": "json"
								}
							}
						},
						"url": {
							"raw": "{{baseUrl}}api/users/{{userID}}",
							"host": [
								"{{baseUrl}}api"
							],
							"path": [
								"users",
								"{{userID}}"
							]
						}
					},
					"response": []
				},
				{
					"name": "User not found",
					"event": [
						{
							"listen": "test",
							"script": {
								"id": "b12184bc-b734-45f2-862b-7d5b6959b1b5",
								"exec": [
									"pm.test(\"Status code is 404\", function () {\r",
									"    pm.response.to.have.status(404);\r",
									"});\r",
									"pm.test(\"Response time is less than 200ms\", function () {\r",
									"    pm.expect(pm.response.responseTime).to.be.below(200);\r",
									"});"
								],
								"type": "text/javascript"
							}
						}
					],
					"request": {
						"method": "GET",
						"header": [],
						"url": {
							"raw": "{{baseUrl}}api/users/23",
							"host": [
								"{{baseUrl}}api"
							],
							"path": [
								"users",
								"23"
							]
						}
					},
					"response": []
				},
				{
					"name": "Delayed Response",
					"event": [
						{
							"listen": "test",
							"script": {
								"id": "f1f8ed25-8d2a-4596-9b43-2ddbc397b1f2",
								"exec": [
									"pm.test(\"Status code is 200\", function () {\r",
									"    pm.response.to.have.status(200);\r",
									"});\r",
									"var time = pm.response.responseTime\r",
									"pm.test(`Status code is 200 - Response time: ${time} ms`, () => pm.response.to.have.status(200))\r",
									"\r",
									"pm.test(\"Response time is more than 3000 ms and less than 3500 ms\", function () {\r",
									"    pm.expect(pm.response.responseTime).to.be.above(3000);\r",
									"    pm.expect(pm.response.responseTime).to.be.below(3500);\r",
									"});"
								],
								"type": "text/javascript"
							}
						},
						{
							"listen": "prerequest",
							"script": {
								"id": "5bafe27a-621d-4c4a-b39e-ce14f67d6cea",
								"exec": [
									""
								],
								"type": "text/javascript"
							}
						}
					],
					"request": {
						"method": "GET",
						"header": [],
						"url": {
							"raw": "{{baseUrl}}api/users?delay=3",
							"host": [
								"{{baseUrl}}api"
							],
							"path": [
								"users"
							],
							"query": [
								{
									"key": "delay",
									"value": "3"
								}
							]
						}
					},
					"response": []
				}
			],
			"protocolProfileBehavior": {}
		},
		{
			"name": "Post requests",
			"item": [
				{
					"name": "Create Post",
					"event": [
						{
							"listen": "test",
							"script": {
								"id": "aade02da-50ed-47e0-a5bc-48791f026099",
								"exec": [
									"pm.test(\"Successful POST request\", function () {\r",
									"    pm.expect(pm.response.code).to.be.oneOf([201, 202]);\r",
									"});\r",
									"pm.test(\"Status code name has string\", () => {\r",
									"  pm.response.to.have.status(\"Created\");\r",
									"});\r",
									"    var jsonData = pm.response.json();\r",
									"pm.test(\"Check the user name\", function () {\r",
									"    pm.expect(jsonData.name).to.eql(pm.variables.get(\"name\"));\r",
									"});\r",
									"\r",
									"pm.test(\"Check the job name\", function () {\r",
									"    pm.expect(jsonData.job).to.eql(pm.variables.get(\"job\"));\r",
									"});\r",
									"pm.test(\"Check current date\", function () {\r",
									"    pm.expect(new Date(jsonData.createdAt).toLocaleDateString()).to.eql(pm.globals.get(\"currentDate\"))\r",
									"});    \r",
									""
								],
								"type": "text/javascript"
							}
						},
						{
							"listen": "prerequest",
							"script": {
								"id": "71399411-7fe7-40ed-8780-5c288ada797a",
								"exec": [
									"\r",
									""
								],
								"type": "text/javascript"
							}
						}
					],
					"request": {
						"method": "POST",
						"header": [],
						"body": {
							"mode": "raw",
							"raw": "{\r\n    \"name\": \"Peter\",\r\n    \"job\": \"QA\"\r\n}",
							"options": {
								"raw": {
									"language": "json"
								}
							}
						},
						"url": {
							"raw": "{{baseUrl}}api/users",
							"host": [
								"{{baseUrl}}api"
							],
							"path": [
								"users"
							]
						}
					},
					"response": []
				},
				{
					"name": "Successful Register",
					"event": [
						{
							"listen": "test",
							"script": {
								"id": "0ea3836f-9322-4bb1-9ab8-e6545ea2d3a5",
								"exec": [
									"pm.test(\"Status code is 200\", function () {\r",
									"    pm.response.to.have.status(200);\r",
									"});\r",
									"pm.test(\"Check successful register \", function () {\r",
									"    var jsonData = pm.response.json();\r",
									"    pm.expect(jsonData.id).to.eql(parseInt(pm.variables.get(\"registerID\")));\r",
									"    pm.expect(jsonData.token).to.eql(pm.variables.get(\"expectedToken\"));\r",
									"});"
								],
								"type": "text/javascript"
							}
						}
					],
					"request": {
						"method": "POST",
						"header": [],
						"body": {
							"mode": "raw",
							"raw": "{\r\n    \"email\": \"eve.holt@reqres.in\",\r\n    \"password\": \"pistol\"\r\n}",
							"options": {
								"raw": {
									"language": "json"
								}
							}
						},
						"url": {
							"raw": "{{baseUrl}}api/register",
							"host": [
								"{{baseUrl}}api"
							],
							"path": [
								"register"
							]
						}
					},
					"response": []
				},
				{
					"name": "Successful Login",
					"event": [
						{
							"listen": "test",
							"script": {
								"id": "5657513d-1638-4f32-b52f-45babbea0fa1",
								"exec": [
									"pm.test(\"Status code is 200\", function () {\r",
									"    pm.response.to.have.status(200);\r",
									"});\r",
									"pm.test(\"Your test name\", function () {\r",
									"    var jsonData = pm.response.json();\r",
									"    pm.expect(jsonData.token).to.eql(pm.variables.get(\"expectedToken\"));\r",
									"});"
								],
								"type": "text/javascript"
							}
						}
					],
					"request": {
						"method": "POST",
						"header": [],
						"body": {
							"mode": "raw",
							"raw": "{\r\n    \"email\": \"eve.holt@reqres.in\",\r\n    \"password\": \"cityslicka\"\r\n}",
							"options": {
								"raw": {
									"language": "json"
								}
							}
						},
						"url": {
							"raw": "{{baseUrl}}api/login",
							"host": [
								"{{baseUrl}}api"
							],
							"path": [
								"login"
							]
						}
					},
					"response": []
				},
				{
					"name": "Unsuccessful Login",
					"event": [
						{
							"listen": "test",
							"script": {
								"id": "eaaab8dc-1001-4e46-b8e8-83ecff83b79d",
								"exec": [
									"pm.test(\"Status code is 400\", function () {\r",
									"    pm.response.to.have.status(400);\r",
									"});\r",
									"pm.test(\"Status code name has string\", () => {\r",
									"  pm.response.to.have.status(\"Bad Request\");\r",
									"});\r",
									"pm.test(\"Body is correct\", function () {\r",
									"    pm.response.to.have.body('{\"error\":\"Missing password\"}');\r",
									"});"
								],
								"type": "text/javascript"
							}
						}
					],
					"request": {
						"method": "POST",
						"header": [],
						"body": {
							"mode": "raw",
							"raw": "{\r\n    \"email\": \"peter@klaven\"\r\n}",
							"options": {
								"raw": {
									"language": "json"
								}
							}
						},
						"url": {
							"raw": "{{baseUrl}}api/login",
							"host": [
								"{{baseUrl}}api"
							],
							"path": [
								"login"
							]
						}
					},
					"response": []
				}
			],
			"protocolProfileBehavior": {}
		},
		{
			"name": "Update Post",
			"event": [
				{
					"listen": "test",
					"script": {
						"id": "c9549136-9de5-4f7c-8af6-a2492d9d0e1e",
						"exec": [
							"pm.test(\"Status code is 200\", function () {\r",
							"    pm.response.to.have.status(200);\r",
							"});\r",
							"    var jsonData = pm.response.json();\r",
							"pm.test(\"Updated user name\", function () {\r",
							"    pm.expect(jsonData.name).to.eql(pm.variables.get(\"new name\"));\r",
							"});\r",
							"pm.test(\"Correct job name\", function () {\r",
							"    pm.expect(jsonData.job).to.eql(pm.variables.get(\"job\"));\r",
							"});\r",
							"pm.test(\"Check current date\", function () {\r",
							"    pm.expect(new Date(jsonData.updatedAt).toLocaleDateString()).to.eql(pm.globals.get(\"currentDate\"))\r",
							"}); "
						],
						"type": "text/javascript"
					}
				},
				{
					"listen": "prerequest",
					"script": {
						"id": "0efcdb54-5bbf-48e8-8314-d2314c4f0e0f",
						"exec": [
							""
						],
						"type": "text/javascript"
					}
				}
			],
			"request": {
				"method": "PUT",
				"header": [],
				"body": {
					"mode": "raw",
					"raw": "{\r\n    \"name\": \"John\",\r\n     \"job\": \"QA\"\r\n}",
					"options": {
						"raw": {
							"language": "json"
						}
					}
				},
				"url": {
					"raw": "{{baseUrl}}api/users?page={{page}}",
					"host": [
						"{{baseUrl}}api"
					],
					"path": [
						"users"
					],
					"query": [
						{
							"key": "page",
							"value": "{{page}}"
						}
					]
				}
			},
			"response": []
		},
		{
			"name": "Delete",
			"event": [
				{
					"listen": "test",
					"script": {
						"id": "34e59b18-3d8a-4f01-b8a3-717b21353d65",
						"exec": [
							"pm.test(\"Status code is 204\", function () {\r",
							"    pm.response.to.have.status(204);\r",
							"});\r",
							"pm.test(\"Status code name has string\", () => {\r",
							"  pm.response.to.have.status(\"No Content\");\r",
							"});"
						],
						"type": "text/javascript"
					}
				}
			],
			"request": {
				"method": "DELETE",
				"header": [],
				"url": {
					"raw": "{{baseUrl}}api/users/{{userID}}",
					"host": [
						"{{baseUrl}}api"
					],
					"path": [
						"users",
						"{{userID}}"
					]
				}
			},
			"response": []
		}
	],
	"event": [
		{
			"listen": "prerequest",
			"script": {
				"id": "5243a965-00d7-45bf-8ab6-532fb3195728",
				"type": "text/javascript",
				"exec": [
					"let date = new Date().toLocaleDateString();",
					"pm.globals.set(\"currentDate\", date);"
				]
			}
		},
		{
			"listen": "test",
			"script": {
				"id": "9dd4fbd5-c898-4d8d-a958-53c2c1161a78",
				"type": "text/javascript",
				"exec": [
					""
				]
			}
		}
	],
	"variable": [
		{
			"id": "e8d7556c-13dd-4e33-a640-614e2e3d8943",
			"key": "page",
			"value": "2"
		},
		{
			"id": "0cc7895c-1a94-4896-b5e4-4bc225d964ea",
			"key": "name",
			"value": "Peter"
		},
		{
			"id": "3d2418b1-b9a8-42b3-b156-b6b133fc4ae1",
			"key": "job",
			"value": "QA"
		},
		{
			"id": "aeb4f4a8-5727-47cd-809d-48b1fe2b32d1",
			"key": "new name",
			"value": "John"
		},
		{
			"id": "d00df982-b95e-44e3-8852-1bba08bf4701",
			"key": "userID",
			"value": "7"
		},
		{
			"id": "38cd96d8-0407-4163-be38-67583ad256f0",
			"key": "userEmail",
			"value": "michael.lawson@reqres.in"
		},
		{
			"id": "c54ca0cf-20b2-4611-995e-7e376de45c22",
			"key": "expectedToken",
			"value": "QpwL5tke4Pnpja7X4"
		},
		{
			"id": "69a511d0-c1d7-4d7e-aff7-bab7291933b8",
			"key": "registerID",
			"value": "4"
		}
	],
	"protocolProfileBehavior": {}
}