{
	"id": "b219ef4a-ce2e-4dd4-89b0-20f4e1775507",
	"name": "ReqResExercise",
	"values": [
		{
			"key": "baseUrl",
			"value": "https://reqres.in/",
			"enabled": true
		}
	],
	"_postman_variable_scope": "environment",
	"_postman_exported_at": "2020-10-11T16:43:13.574Z",
	"_postman_exported_using": "Postman/7.34.0"
}